<svg width="48" height="48" viewBox="0 0 48 48" fill="none" xmlns="http://www.w3.org/2000/svg">
<path fill-rule="evenodd" clip-rule="evenodd" d="M24 40C32.8366 40 40 32.8366 40 24C40 15.1634 32.8366 8 24 8C15.1634 8 8 15.1634 8 24C8 32.8366 15.1634 40 24 40ZM26.688 25.344L27.288 24.936C28.424 24.152 29.208 23.448 29.64 22.824C30.088 22.184 30.312 21.424 30.312 20.544C30.312 19.888 30.16 19.28 29.856 18.72C29.568 18.16 29.16 17.672 28.632 17.256C28.12 16.84 27.504 16.52 26.784 16.296C26.064 16.056 25.288 15.936 24.456 15.936C22.968 15.936 21.64 16.304 20.472 17.04C19.32 17.776 18.52 18.76 18.072 19.992L21.216 21.168C21.456 20.56 21.856 20.072 22.416 19.704C22.992 19.336 23.624 19.152 24.312 19.152C24.952 19.152 25.48 19.312 25.896 19.632C26.312 19.936 26.52 20.32 26.52 20.784C26.52 21.04 26.416 21.304 26.208 21.576C26.016 21.848 25.72 22.136 25.32 22.44L24.024 23.4C23.272 23.96 22.768 24.552 22.512 25.176C22.256 25.8 22.16 26.664 22.224 27.768H25.464C25.448 27.176 25.528 26.704 25.704 26.352C25.896 25.984 26.224 25.648 26.688 25.344ZM25.416 29.472C24.984 29.024 24.464 28.8 23.856 28.8C23.248 28.8 22.72 29.024 22.272 29.472C21.84 29.904 21.624 30.424 21.624 31.032C21.624 31.64 21.84 32.168 22.272 32.616C22.72 33.048 23.248 33.264 23.856 33.264C24.464 33.264 24.984 33.048 25.416 32.616C25.864 32.168 26.088 31.64 26.088 31.032C26.088 30.424 25.864 29.904 25.416 29.472Z" fill="#2563F5"/>
</svg>
